\relax 
\gdef \tocmax@section{5.0pt}
\gdef \tocmax@subsection{5.0pt}
\gdef \tocmax@subsubsection{5.0pt}
\gdef \tocmax@paragraph{5.0pt}
\gdef \tocmax@appendix{5.0pt}
\gdef \tocmax@pagenum{5.0pt}
\newlabel{FirstPage}{{}{1}{}{}{}}
\@writefile{toc}{\contentsline {title}{APS Author Guide for REV\TeX  \ \nobreakspace  {}4.2}{1}{}}
\@writefile{toc}{\tocdepth@munge}
\@writefile{toc}{\contentsline {section}{\numberline {}Contents}{1}{}}
\@writefile{toc}{\tocdepth@restore}
\@writefile{toc}{\contentsline {section}{\numberline {I}Introduction}{1}{}}
\@writefile{toc}{\contentsline {section}{\numberline {II}Formatting}{1}{}}
\@writefile{toc}{\contentsline {subsection}{\numberline {II.1}Preprint, reprint, and twocolumn options}{1}{}}
\@writefile{toc}{\contentsline {subsection}{\numberline {II.2}Paper size}{1}{}}
\@writefile{toc}{\contentsline {section}{\numberline {III}Marking up front matter}{1}{}}
\@writefile{toc}{\contentsline {subsection}{\numberline {III.1}Title}{1}{}}
\@writefile{toc}{\contentsline {subsection}{\numberline {III.2}Authors, affiliations, and collaborations}{1}{}}
\newlabel{sec:authors}{{III.2}{1}{}{}{}}
\@writefile{toc}{\contentsline {subsection}{\numberline {III.3}Abstract}{2}{}}
\@writefile{toc}{\contentsline {section}{\numberline {IV}References and footnotes}{2}{}}
\@writefile{toc}{\contentsline {section}{\numberline {V}Body of the paper}{3}{}}
\@writefile{toc}{\contentsline {subsection}{\numberline {V.1}Sectioning and cross-referencing}{3}{}}
\@writefile{toc}{\contentsline {subsection}{\numberline {V.2}Appendices}{3}{}}
\@writefile{toc}{\contentsline {subsection}{\numberline {V.3}Acknowledgments}{3}{}}
\@writefile{toc}{\contentsline {subsection}{\numberline {V.4}Counters}{3}{}}
\@writefile{toc}{\contentsline {subsection}{\numberline {V.5}Fonts}{3}{}}
\@writefile{lot}{\contentsline {table}{\numberline {I}{\ignorespaces \LaTeXe  \ and AMS-\LaTeX  \ font summary.}}{3}{}}
\newlabel{tab:fonts}{{I}{3}{}{}{}}
\@writefile{toc}{\contentsline {subsection}{\numberline {V.6}Environments}{3}{}}
\@writefile{toc}{\contentsline {subsubsection}{\numberline {V.6.1}Lists}{3}{}}
\@writefile{toc}{\contentsline {subsubsection}{\numberline {V.6.2}Other Environments}{3}{}}
\@writefile{toc}{\contentsline {subsection}{\numberline {V.7}Boxes}{4}{}}
\@writefile{toc}{\contentsline {subsubsection}{\numberline {V.7.1}Margin Notes}{4}{}}
\@writefile{toc}{\contentsline {section}{\numberline {VI}Math Markup}{4}{}}
\@writefile{toc}{\contentsline {section}{\numberline {VII}Figures}{4}{}}
\@writefile{toc}{\contentsline {subsection}{\numberline {VII.1}Figure inclusions}{4}{}}
\newlabel{sec:figplace}{{VII.2}{4}{}{}{}}
\@writefile{toc}{\contentsline {subsection}{\numberline {VII.2}Figure placement}{4}{}}
\@writefile{toc}{\contentsline {section}{\numberline {VIII}Tables}{4}{}}
\newlabel{sec:tables}{{VIII}{4}{}{}{}}
\@writefile{toc}{\contentsline {subsection}{\numberline {VIII.1}Doubled rules and table formatting}{4}{}}
\bibdata{paper1Notes}
\bibstyle{apsrev4-2}
\citation{REVTEX42Control}
\citation{apsrev42Control}
\@writefile{toc}{\contentsline {subsection}{\numberline {VIII.2}Wide tables}{5}{}}
\@writefile{toc}{\contentsline {subsection}{\numberline {VIII.3}Table placement}{5}{}}
\@writefile{toc}{\contentsline {subsection}{\numberline {VIII.4}Aligning columns on a decimal point}{5}{}}
\@writefile{toc}{\contentsline {subsection}{\numberline {VIII.5}Tablenotes}{5}{}}
\newlabel{sec:tablenotes}{{VIII.5}{5}{}{}{}}
\@writefile{toc}{\contentsline {section}{\numberline {IX}Author-defined macros}{5}{}}
\@writefile{toc}{\contentsline {section}{\numberline {X}Summary}{5}{}}
\newlabel{LastPage}{{}{5}{}{}{}}
\gdef \@abspage@last{5}
